Advanced Markdown
…
```r
{r echo = FALSE}
select(airbnb, Preis)
```
]

.pull-righ5[

```
## # A tibble: 9,868 x 1
##    Preis
##    <dbl>
##  1   125
##  2    33
##  3   180
##  4    49
##  5   129
##  6    98
##  7   160
##  8    65
##  9    90
## 10   269
## # … with 9,858 more rows
```
…
